{
  "Data & Interaktif": [
    {
      "name": "Grafik Interaktif untuk Data Nasional",
      "link": "https://kcov.id/data-nasional"
    },
    {
      "name": "Grafik Interaktif untuk Data per Provinsi",
      "link": "https://kcov.id/data-provinsi"
    },
    {
      "name": "Peta Persebaran untuk Data per Provinsi",
      "link": "https://kcov.id/peta-provinsi"
    },
    {
      "name": "GIS Hub Kawal COVID-19",
      "link": "https://kcov.id/map"
    },
    {
      "name": "Peta Kasus COVID-19 di Indonesia",
      "link": "https://kcov.id/petapositif"
    },
    {
      "name": "Peta Rumah Sakit Rujukan di Indonesia",
      "link": "https://kawalcovid19.maps.arcgis.com/apps/opsdashboard/index.html#/8caa437261f2440093ce28e33e3ba6dd"
    },
    {
      "name": "Peta Kasus Global COVID-19",
      "link": "https://arcg.is/0fHmTX"
    },
    {
      "name": "Peta Kasus Global COVID-19 (versi mobile)",
      "link": "https://arcg.is/1DPOWm0"
    }
  ],
  "Periksa Fakta": [
    {
      "name": "Kompilasi TurnBackHoax COVID-19",
      "link": "https://kcov.id/mafindokompilasihoax"
    },
    {
      "name": "Kominfo - Kumpulan Hoaks Terkait Virus Corona",
      "link": "https://kominfo.go.id/content/all/virus_corona"
    }
  ],
  "Institusi": [
    {
      "name": "WHO",
      "link": "https://www.who.int/emergencies/diseases/novel-coronavirus-2019"
    },
    {
      "name": "UNICEF Indonesia",
      "link": "https://www.unicef.org/indonesia/id/coronavirus"
    },
    {
      "name": "Situs Resmi Pemerintah untuk COVID-19",
      "link": "https://www.covid19.go.id"
    },
    {
      "name": "Daftar Situs Resmi Pemerintah Daerah",
      "link": "/pemerintah-daerah"
    }
  ],
  "Serial Buku Elektronik Edukasi untuk Anak-Anak": [
    {
      "name": "Buku 1: Cerita Si Korona",
      "link": "https://kcov.id/buku-korona-1"
    },
    {
      "name": "Buku 2: Gara-gara Korona",
      "link": "https://kcov.id/buku-korona-2"
    },
    {
      "name": "Buku 3: Ayo Cuci Tangan Dulu",
      "link": "https://kcov.id/buku-korona-3"
    },
    {
      "name": "Buku 4: Jangan Masuk Rumah, Korona!",
      "link": "https://kcov.id/buku-korona-4"
    },
    {
      "name": "Buku 5: Perjalanan Si Korona",
      "link": "https://kcov.id/buku-korona-5"
    },
    {
      "name": "Buku 6: Ayo Jaga Hewan Peliharaanmu",
      "link": "https://kcov.id/buku-korona-6"
    },
    {
      "name": "Buku 7: Selamat Datang, Ramadan",
      "link": "https://kcov.id/buku-korona-7"
    },
    {
      "name": "Buku 8: Saling Sapa dari Rumah",
      "link": "https://kcov.id/buku-korona-8"
    },
    {
      "name": "Buku 9: Pakailah Masker dengan Benar",
      "link": "https://kcov.id/buku-korona-9"
    },
    {
      "name": "Buku 10: Kita Semua Pahlawan",
      "link": "https://kcov.id/buku-korona-10"
    }
  ]
}
